stateless_board_git/ram_eth/.Xil/Vivado-3828-WIN-5I8J21IIVL5/hw_ila_data_1/zip_work/waveform.vcd
$date
        2020-Jul-20 15:54:22
$end
$version
        Vivado v2017.4 (64-bit)
$end
$timescale
        1ps
$end
$scope module dut $end
$var reg 64 " rx_axis_tdata_out [63:0] $end
$var reg 64 b eth_test/u1/mac_test0/mac_top0/mac_rx0/udp0/event_info_in [63:0] $end
$var reg 64 D" ten_gig_eth_example_top/rx_axis_tdata [63:0] $end
$var reg 8 &# ten_gig_eth_example_top/tx_axis_tkeep [7:0] $end
$var reg 8 .# ten_gig_eth_example_top/rx_axis_tkeep [7:0] $end
$var reg 64 6# ten_gig_eth_example_top/tx_axis_tdata_dly [63:0] $end
$var reg 1 v# eth_test/u1/mac_test0/mac_top0/mac_rx0/udp0/event_info_in_en $end
$var reg 1 w# ten_gig_eth_example_top/rx_axis_tlast $end
$var reg 1 x# ten_gig_eth_example_top/rx_axis_tready $end
$var reg 1 y# ten_gig_eth_example_top/rx_axis_tvalid $end
$var reg 1 z# rx_axis_tvalid_out $end
$var reg 1 {# ten_gig_eth_example_top/tx_axis_tlast_in $end
$var reg 1 |# ten_gig_eth_example_top/tx_axis_tready $end
$var reg 1 }# ten_gig_eth_example_top/tx_axis_tvalid $end
$var reg 1 ~# _TRIGGER $end
$var reg 1 !$ _WINDOW $end
$var reg 1 "$ _GAP $end
$upscope $end
$enddefinitions $end
#0
$dumpvars
b0 "
b0 b
b1010100011000000010101110011011000010001100000000000000001000000 D"
b11111111 &#
b11111111 .#
b1111111111111111111111111111111111111111111111111111111111111111 6#
0v#
0w#
0x#
0y#
0z#
0{#
1|#
0}#
0~#
1!$
0"$
$end
#510
b1000000000110000001111111000000001001101010000101000000000 D"
1y#
#511
b1010001101010000000111111110110000000000000000000010 "
1x#
#512
b1000101000000000000100001000001011010100000010111001001 D"
1z#
1~#
#513
b1100100100000101011010100100000100001000000000000100010100000000 "
b1000101000000000000000100000001110011000011110010001000000100 D"
#514
b10000100010000011110111001101000000000000000100000000010001 "
b1010100011000000000001010001111110101000110000001111110001100111 D"
#515
b110011111111100110000001010100000011111000001011100000010101000 "
b111000000100001110010011000001100011101001000000011000011111 D"
#516
b1111100000110101001000110001100110000001110010000010000001110 "
b1100001101001100011011 D"
#517
b1101111010011001100000000000000000000000000000000000000000000 "
b11000 D"
#518
b1100000000000000000000000000000000000000000000000000000000000 "
b11000000000 D"
#519
b110000000000000000000000000000000000000000000000000 "
b0 D"
#520
b0 "
#528
b11000000101010000001111100000101 b
1v#
#529
b100000000000000000000000000000000000000000000000001100000000000 b
#530
b110 b
#531
b11000000111001000000000000001011001001000001010110101001000001 b
#532
b0 b
0v#
#585
b101000000000010000010110101000000101110010010000001000000000 6#
1}#
#586
b1000101000000000000100011000000111111100000000100110101 6#
#587
b1000110000000000000000100000000101100000001010011001000000000 6#
#588
b1010100011000000000001100001111110101000110000000011001100110110 6#
#589
b1111000000000001110010011000000111001001100000000010100011111 6#
#590
b10000000000000000000000 6#
#591
b11000 6#
#592
b11000000000 6#
1{#
#593
b1111111111111111111111111111111111111111111111111111111111111111 6#
0{#
0}#
#644
1w#
#645
0w#
0y#
#646
0x#
0z#
