stateless_board_git/xdma_0_ex/.Xil/Vivado-11524-WIN-6LRTIFRL70S/hw_ila_data_1/zip_work/waveform.vcd
$date
        2020-May-02 00:03:58
$end
$version
        Vivado v2017.4_AR70877 (64-bit)
$end
$timescale
        1ps
$end
$scope module dut $end
$var reg 32 " xdma_app_i/we_a [31:0] $end
$var reg 1 B xdma_app_i/en_a $end
$var reg 1 C _TRIGGER $end
$var reg 1 D _WINDOW $end
$var reg 1 E _GAP $end
$upscope $end
$enddefinitions $end
#0
$dumpvars
b0 "
0B
0C
1D
0E
$end
#52
1B
#53
0B
#133
1B
#134
0B
#211
1B
#212
0B
#290
1B
#291
0B
#370
1B
#371
0B
#450
1B
#451
0B
#512
1C
#531
1B
#532
0B
#609
1B
#610
0B
#688
1B
#689
0B
#770
1B
#771
0B
#849
1B
#850
0B
#929
1B
#930
0B
#1010
1B
#1011
0B
