stateless_board_git/xdma_0_ex/.Xil/Vivado-5316-WIN-6LRTIFRL70S/hw_ila_data_1/zip_work/waveform.vcd
$date
        2020-May-06 22:34:58
$end
$version
        Vivado v2017.4_AR70877 (64-bit)
$end
$timescale
        1ps
$end
$scope module dut $end
$var reg 4 " u_ila_0_axi_bram_ctrl_0_BRAM_PORTA_ADDR [8:5] $end
$var reg 11 & xdma_and_ram_i/axi_bram_ctrl_0_BRAM_PORTA_ADDR [19:9] $end
$var reg 256 1 xdma_and_ram_i/axi_bram_ctrl_0_BRAM_PORTA_DIN [255:0] $end
$var reg 256 u# xdma_and_ram_i/axi_bram_ctrl_0_BRAM_PORTA_DOUT [255:0] $end
$var reg 32 [& xdma_and_ram_i/axi_bram_ctrl_0_BRAM_PORTA_WE [31:0] $end
$var reg 20 {& u_ila_0_axi_mem_intercon_M00_AXI_AWADDR [19:0] $end
$var reg 4 1' xdma_and_ram_i/axi_mem_intercon_M00_AXI_BID [3:0] $end
$var reg 256 5' xdma_and_ram_i/axi_mem_intercon_M00_AXI_WDATA [255:0] $end
$var reg 4 y) xdma_and_ram_i/axi_mem_intercon_M00_AXI_AWID [3:0] $end
$var reg 256 }) xdma_and_ram_i/axi_mem_intercon_M00_AXI_RDATA [255:0] $end
$var reg 64 c, c2h_dsc_byp_dst_addr [63:0] $end
$var reg 64 E- h2c_dsc_byp_src_addr [63:0] $end
$var reg 64 '. h2c_dsc_byp_dst_addr [63:0] $end
$var reg 20 g. u_ila_0_axi_mem_intercon_M00_AXI_ARADDR [19:0] $end
$var reg 28 {. c2h_dsc_byp_len [27:0] $end
$var reg 64 9/ c2h_dsc_byp_src_addr [63:0] $end
$var reg 16 y/ h2c_dsc_byp_ctl [15:0] $end
$var reg 16 +0 c2h_dsc_byp_ctl [15:0] $end
$var reg 1 ;0 u_ila_0_axi_mem_intercon_M00_AXI_AWBURST $end
$var reg 3 <0 u_ila_0_axi_mem_intercon_M00_AXI_ARSIZE [2:0] $end
$var reg 3 ?0 u_ila_0_axi_mem_intercon_M00_AXI_AWPROT [2:0] $end
$var reg 4 B0 u_ila_0_axi_mem_intercon_M00_AXI_ARLEN [3:0] $end
$var reg 4 F0 xdma_and_ram_i/axi_mem_intercon_M00_AXI_ARLEN [7:4] $end
$var reg 8 J0 u_ila_0_axi_mem_intercon_M00_AXI_AWLEN [7:0] $end
$var reg 32 R0 xdma_and_ram_i/axi_mem_intercon_M00_AXI_WSTRB [31:0] $end
$var reg 2 r0 xdma_and_ram_i/axi_mem_intercon_M00_AXI_ARID [1:0] $end
$var reg 3 t0 u_ila_0_axi_mem_intercon_M00_AXI_AWSIZE [2:0] $end
$var reg 3 w0 u_ila_0_axi_mem_intercon_M00_AXI_ARPROT [2:0] $end
$var reg 1 z0 u_ila_0_axi_mem_intercon_M00_AXI_ARBURST $end
$var reg 28 {0 h2c_dsc_byp_len [27:0] $end
$var reg 1 91 user_clk $end
$var reg 1 :1 user_resetn $end
$var reg 1 ;1 xdma_and_ram_i/axi_bram_ctrl_0_BRAM_PORTA_EN $end
$var reg 1 <1 lopt $end
$var reg 1 =1 xdma_and_ram_i/axi_mem_intercon_M00_AXI_ARREADY $end
$var reg 1 >1 xdma_and_ram_i/axi_mem_intercon_M00_AXI_ARVALID $end
$var reg 1 ?1 xdma_and_ram_i/axi_mem_intercon_M00_AXI_AWREADY $end
$var reg 1 @1 xdma_and_ram_i/axi_mem_intercon_M00_AXI_AWVALID $end
$var reg 1 A1 xdma_and_ram_i/axi_mem_intercon_M00_AXI_BREADY $end
$var reg 1 B1 xdma_and_ram_i/axi_mem_intercon_M00_AXI_BVALID $end
$var reg 1 C1 xdma_and_ram_i/axi_mem_intercon_M00_AXI_RLAST $end
$var reg 1 D1 xdma_and_ram_i/axi_mem_intercon_M00_AXI_RREADY $end
$var reg 1 E1 xdma_and_ram_i/axi_mem_intercon_M00_AXI_RVALID $end
$var reg 1 F1 xdma_and_ram_i/axi_mem_intercon_M00_AXI_WLAST $end
$var reg 1 G1 xdma_and_ram_i/axi_mem_intercon_M00_AXI_WREADY $end
$var reg 1 H1 xdma_and_ram_i/axi_mem_intercon_M00_AXI_WVALID $end
$var reg 1 I1 c2h_dsc_byp_load $end
$var reg 1 J1 c2h_dsc_byp_ready $end
$var reg 1 K1 h2c_dsc_byp_load $end
$var reg 1 L1 h2c_dsc_byp_ready $end
$var reg 1 M1 _TRIGGER $end
$var reg 1 N1 _WINDOW $end
$var reg 1 O1 _GAP $end
$upscope $end
$enddefinitions $end
#0
$dumpvars
b0 "
b0 &
b0 1
b0 u#
b0 [&
b0 {&
b0 1'
b0 5'
b0 y)
b0 })
b0 c,
b0 E-
b0 '.
b0 g.
b0 {.
b0 9/
b10 y/
b10 +0
0;0
b0 <0
b0 ?0
b0 B0
b0 F0
b11111111 J0
b11111111111111111111111111111111 R0
b0 r0
b0 t0
b0 w0
0z0
b0 {0
091
1:1
0;1
0<1
0=1
0>1
0?1
0@1
0A1
0B1
0C1
0D1
0E1
0F1
1G1
0H1
0I1
0J1
0K1
0L1
0M1
1N1
0O1
$end
#511
1J1
#512
b10000 c,
b10000 {.
b10000 9/
b11 +0
1I1
1M1
#513
0I1
#514
b10 +0
#515
b11 +0
1I1
#516
0I1
#517
b10 +0
#518
b11 +0
1I1
#519
0I1
#520
b10 +0
#521
b11 +0
1I1
#522
0I1
#523
b10 +0
#524
b10000 g.
b11 +0
b101 <0
1z0
1>1
1I1
#525
1=1
1D1
0I1
#526
b10 +0
1;1
0=1
0>1
#527
b11 +0
0;1
1>1
1I1
#528
1C1
1E1
0I1
#529
b10 +0
1=1
0C1
0D1
0E1
#530
b11 +0
1;1
0=1
0>1
1D1
1I1
#531
0;1
1>1
0I1
#532
b10 +0
1C1
1E1
#533
b11 +0
1=1
0C1
0D1
0E1
1I1
#534
1;1
0=1
0>1
1D1
0I1
#535
b10 +0
0;1
1>1
#536
b11 +0
1C1
1E1
1I1
#537
1=1
0C1
0D1
0E1
0I1
#538
b10 +0
1;1
0=1
0>1
1D1
#539
b11 +0
0;1
1>1
1I1
#540
1C1
1E1
0I1
#541
b10 +0
1=1
0C1
0D1
0E1
#542
b11 +0
1;1
0=1
0>1
1D1
1I1
#543
0;1
1>1
0I1
#544
b10 +0
1C1
1E1
#545
b11 +0
1=1
0C1
0D1
0E1
1I1
#546
1;1
0=1
0>1
1D1
0I1
#547
b10 +0
0;1
1>1
#548
b11 +0
1C1
1E1
1I1
#549
1=1
0C1
0D1
0E1
0I1
#550
b10 +0
1;1
0=1
0>1
1D1
#551
b11 +0
0;1
1>1
1I1
#552
1C1
1E1
0I1
#553
b10 +0
1=1
0C1
0D1
0E1
#554
b11 +0
1;1
0=1
0>1
1D1
1I1
#555
0;1
1>1
0I1
#556
b10 +0
1C1
1E1
#557
b11 +0
1=1
0C1
0D1
0E1
1I1
#558
1;1
0=1
0>1
1D1
0I1
#559
b10 +0
0;1
1>1
#560
b11 +0
1C1
1E1
1I1
#561
1=1
0C1
0D1
0E1
0I1
#562
b10 +0
1;1
0=1
0>1
1D1
#563
b11 +0
0;1
1>1
1I1
#564
1C1
1E1
0I1
#565
b10 +0
1=1
0C1
0D1
0E1
#566
b11 +0
1;1
0=1
0>1
1D1
1I1
#567
0;1
1>1
0I1
#568
b10 +0
1C1
1E1
#569
b11 +0
1=1
0C1
0D1
0E1
1I1
#570
1;1
0=1
0>1
1D1
0I1
#571
b10 +0
0;1
1>1
#572
b11 +0
1C1
1E1
1I1
#573
1=1
0C1
0D1
0E1
0I1
#574
b10 +0
1;1
0=1
0>1
1D1
#575
b11 +0
0;1
1>1
1I1
#576
1C1
1E1
0I1
#577
b10 +0
1=1
0C1
0D1
0E1
#578
b11 +0
1;1
0=1
0>1
1D1
1I1
#579
0;1
1>1
0I1
#580
b10 +0
1C1
1E1
#581
b11 +0
1=1
0C1
0D1
0E1
1I1
#582
1;1
0=1
0>1
1D1
0I1
#583
b10 +0
0;1
1>1
#584
b11 +0
1C1
1E1
1I1
#585
1=1
0C1
0D1
0E1
0I1
#586
b10 +0
1;1
0=1
0>1
1D1
#587
b11 +0
0;1
1>1
1I1
#588
1C1
1E1
0I1
#589
b10 +0
1=1
0C1
0D1
0E1
#590
b11 +0
1;1
0=1
0>1
1D1
1I1
#591
0;1
1>1
0I1
#592
b10 +0
1C1
1E1
#593
b11 +0
1=1
0C1
0D1
0E1
1I1
#594
1;1
0=1
0>1
1D1
0I1
#595
b10 +0
0;1
1>1
#596
b11 +0
1C1
1E1
1I1
#597
1=1
0C1
0D1
0E1
0I1
#598
b10 +0
1;1
0=1
0>1
1D1
#599
b11 +0
0;1
1>1
1I1
#600
1C1
1E1
0I1
#601
b10 +0
1=1
0C1
0D1
0E1
#602
b11 +0
1;1
0=1
0>1
1D1
1I1
#603
0;1
1>1
0I1
#604
b10 +0
1C1
1E1
0J1
#605
1=1
0C1
0D1
0E1
1J1
#606
b11 +0
1;1
0=1
0>1
1D1
1I1
#607
0;1
1>1
0I1
#608
b10 +0
1C1
1E1
0J1
#609
1=1
0C1
0D1
0E1
1J1
#610
b11 +0
1;1
0=1
0>1
1D1
1I1
#611
0;1
1>1
0I1
#612
b10 +0
1C1
1E1
0J1
#613
1=1
0C1
0D1
0E1
1J1
#614
b11 +0
1;1
0=1
0>1
1D1
1I1
#615
0;1
1>1
0I1
#616
b10 +0
1C1
1E1
0J1
#617
1=1
0C1
0D1
0E1
1J1
#618
b11 +0
1;1
0=1
0>1
1D1
1I1
#619
0;1
1>1
0I1
#620
b10 +0
1C1
1E1
0J1
#621
1=1
0C1
0D1
0E1
1J1
#622
b11 +0
1;1
0=1
0>1
1D1
1I1
#623
0;1
1>1
0I1
#624
b10 +0
1C1
1E1
0J1
#625
1=1
0C1
0D1
0E1
1J1
#626
b11 +0
1;1
0=1
0>1
1D1
1I1
#627
0;1
1>1
0I1
#628
b10 +0
1C1
1E1
0J1
#629
1=1
0C1
0D1
0E1
1J1
#630
b11 +0
1;1
0=1
0>1
1D1
1I1
#631
0;1
1>1
0I1
#632
b10 +0
1C1
1E1
0J1
#633
1=1
0C1
0D1
0E1
1J1
#634
b11 +0
1;1
0=1
0>1
1D1
1I1
#635
0;1
1>1
0I1
#636
b10 +0
1C1
1E1
0J1
#637
1=1
0C1
0D1
0E1
1J1
#638
b11 +0
1;1
0=1
0>1
1D1
1I1
#639
0;1
1>1
0I1
#640
b10 +0
1C1
1E1
0J1
#641
1=1
0C1
0D1
0E1
1J1
#642
b11 +0
1;1
0=1
0>1
1D1
1I1
#643
0;1
1>1
0I1
#644
b10 +0
1C1
1E1
0J1
#645
1=1
0C1
0D1
0E1
1J1
#646
b11 +0
1;1
0=1
0>1
1D1
1I1
#647
0;1
1>1
0I1
#648
b10 +0
1C1
1E1
0J1
#649
1=1
0C1
0D1
0E1
1J1
#650
b11 +0
1;1
0=1
0>1
1D1
1I1
#651
0;1
1>1
0I1
#652
b10 +0
1C1
1E1
0J1
#653
1=1
0C1
0D1
0E1
1J1
#654
b11 +0
1;1
0=1
0>1
1D1
1I1
#655
0;1
1>1
0I1
#656
b10 +0
1C1
1E1
0J1
#657
1=1
0C1
0D1
0E1
1J1
#658
b11 +0
1;1
0=1
0>1
1D1
1I1
#659
0;1
1>1
0I1
#660
b10 +0
1C1
1E1
0J1
#661
1=1
0C1
0D1
0E1
1J1
#662
b11 +0
1;1
0=1
0>1
1D1
1I1
#663
0;1
1>1
0I1
#664
b10 +0
1C1
1E1
0J1
#665
1=1
0C1
0D1
0E1
1J1
#666
b11 +0
1;1
0=1
0>1
1D1
1I1
#667
0;1
1>1
0I1
#668
b10 +0
1C1
1E1
0J1
#669
1=1
0C1
0D1
0E1
1J1
#670
b11 +0
1;1
0=1
0>1
1D1
1I1
#671
0;1
1>1
0I1
#672
b10 +0
1C1
1E1
0J1
#673
1=1
0C1
0D1
0E1
1J1
#674
b11 +0
1;1
0=1
0>1
1D1
1I1
#675
0;1
1>1
0I1
#676
b10 +0
1C1
1E1
0J1
#677
1=1
0C1
0D1
0E1
1J1
#678
b11 +0
1;1
0=1
0>1
1D1
1I1
#679
0;1
1>1
0I1
#680
b10 +0
1C1
1E1
0J1
#681
1=1
0C1
0D1
0E1
1J1
#682
b11 +0
1;1
0=1
0>1
1D1
1I1
#683
0;1
1>1
0I1
#684
b10 +0
1C1
1E1
0J1
#685
1=1
0C1
0D1
0E1
1J1
#686
b11 +0
1;1
0=1
0>1
1D1
1I1
#687
0;1
1>1
0I1
#688
b10 +0
1C1
1E1
0J1
#689
1=1
0C1
0D1
0E1
1J1
#690
b11 +0
1;1
0=1
0>1
1D1
1I1
#691
0;1
1>1
0I1
#692
b10 +0
1C1
1E1
0J1
#693
1=1
0C1
0D1
0E1
1J1
#694
b11 +0
1;1
0=1
0>1
1D1
1I1
#695
0;1
1>1
0I1
#696
b10 +0
1C1
1E1
0J1
#697
1=1
0C1
0D1
0E1
1J1
#698
b11 +0
1;1
0=1
0>1
1D1
1I1
#699
0;1
1>1
0I1
#700
b10 +0
1C1
1E1
0J1
#701
1=1
0C1
0D1
0E1
1J1
#702
b11 +0
1;1
0=1
0>1
1D1
1I1
#703
0;1
1>1
0I1
#704
b10 +0
1C1
1E1
0J1
#705
1=1
0C1
0D1
0E1
1J1
#706
b11 +0
1;1
0=1
0>1
1D1
1I1
#707
0;1
1>1
0I1
#708
b10 +0
1C1
1E1
0J1
#709
1=1
0C1
0D1
0E1
1J1
#710
b11 +0
1;1
0=1
0>1
1D1
1I1
#711
0;1
1>1
0I1
#712
b10 +0
1C1
1E1
0J1
#713
1=1
0C1
0D1
0E1
1J1
#714
b11 +0
1;1
0=1
0>1
1D1
1I1
#715
0;1
1>1
0I1
#716
b10 +0
1C1
1E1
0J1
#717
1=1
0C1
0D1
0E1
1J1
#718
b11 +0
1;1
0=1
0>1
1D1
1I1
#719
0;1
1>1
0I1
#720
b10 +0
1C1
1E1
0J1
#721
1=1
0C1
0D1
0E1
1J1
#722
b11 +0
1;1
0=1
0>1
1D1
1I1
#723
0;1
1>1
0I1
#724
b10 +0
1C1
1E1
0J1
#725
1=1
0C1
0D1
0E1
1J1
#726
b11 +0
1;1
0=1
0>1
1D1
1I1
#727
0;1
1>1
0I1
#728
b10 +0
1C1
1E1
0J1
#729
1=1
0C1
0D1
0E1
1J1
#730
b11 +0
1;1
0=1
0>1
1D1
1I1
#731
0;1
1>1
0I1
#732
b10 +0
1C1
1E1
0J1
#733
1=1
0C1
0D1
0E1
1J1
#734
b11 +0
1;1
0=1
0>1
1D1
1I1
#735
0;1
1>1
0I1
#736
b10 +0
1C1
1E1
0J1
#737
1=1
0C1
0D1
0E1
1J1
#738
b11 +0
1;1
0=1
0>1
1D1
1I1
#739
0;1
1>1
0I1
#740
b10 +0
1C1
1E1
0J1
#741
1=1
0C1
0D1
0E1
1J1
#742
b11 +0
1;1
0=1
0>1
1D1
1I1
#743
0;1
1>1
0I1
#744
b10 +0
1C1
1E1
0J1
#745
1=1
0C1
0D1
0E1
1J1
#746
b11 +0
1;1
0=1
0>1
1D1
1I1
#747
0;1
1>1
0I1
#748
b10 +0
1C1
1E1
0J1
#749
1=1
0C1
0D1
0E1
1J1
#750
b11 +0
1;1
0=1
0>1
1D1
1I1
#751
0;1
1>1
0I1
#752
b10 +0
1C1
1E1
0J1
#753
1=1
0C1
0D1
0E1
#754
1;1
0=1
0>1
1D1
#755
0;1
1>1
#756
1C1
1E1
1J1
#757
b11 +0
1=1
0C1
0D1
0E1
1I1
#758
1;1
0=1
0>1
1D1
0I1
#759
b10 +0
0;1
1>1
#760
b11 +0
1C1
1E1
1I1
#761
1=1
0C1
0D1
0E1
0I1
#762
b10 +0
1;1
0=1
0>1
1D1
#763
b11 +0
0;1
1>1
1I1
#764
1C1
1E1
0I1
#765
b10 +0
1=1
0C1
0D1
0E1
#766
b11 +0
1;1
0=1
0>1
1D1
1I1
#767
0;1
1>1
0I1
#768
b10 +0
1C1
1E1
0J1
#769
1=1
0C1
0D1
0E1
1J1
#770
b11 +0
1;1
0=1
0>1
1D1
1I1
#771
0;1
1>1
0I1
#772
b10 +0
1C1
1E1
0J1
#773
1=1
0C1
0D1
0E1
1J1
#774
b11 +0
1;1
0=1
0>1
1D1
1I1
#775
0;1
1>1
0I1
#776
b10 +0
1C1
1E1
0J1
#777
1=1
0C1
0D1
0E1
1J1
#778
b11 +0
1;1
0=1
0>1
1D1
1I1
#779
0;1
1>1
0I1
#780
b10 +0
1C1
1E1
0J1
#781
1=1
0C1
0D1
0E1
1J1
#782
b11 +0
1;1
0=1
0>1
1D1
1I1
#783
0;1
1>1
0I1
#784
b10 +0
1C1
1E1
0J1
#785
1=1
0C1
0D1
0E1
1J1
#786
b11 +0
1;1
0=1
0>1
1D1
1I1
#787
0;1
1>1
0I1
#788
b10 +0
1C1
1E1
0J1
#789
1=1
0C1
0D1
0E1
1J1
#790
b11 +0
1;1
0=1
0>1
1D1
1I1
#791
0;1
1>1
0I1
#792
b10 +0
1C1
1E1
0J1
#793
1=1
0C1
0D1
0E1
1J1
#794
b11 +0
1;1
0=1
0>1
1D1
1I1
#795
0;1
1>1
0I1
#796
b10 +0
1C1
1E1
0J1
#797
1=1
0C1
0D1
0E1
1J1
#798
b11 +0
1;1
0=1
0>1
1D1
1I1
#799
0;1
1>1
0I1
#800
b10 +0
1C1
1E1
0J1
#801
1=1
0C1
0D1
0E1
#802
1;1
0=1
0>1
1D1
#803
0;1
1>1
#804
1C1
1E1
#805
1=1
0C1
0D1
0E1
#806
1;1
0=1
0>1
1D1
#807
0;1
1>1
#808
1C1
1E1
#809
1=1
0C1
0D1
0E1
#810
1;1
0=1
0>1
1D1
#811
0;1
1>1
#812
1C1
1E1
#813
1=1
0C1
0D1
0E1
#814
1;1
0=1
0>1
1D1
#815
0;1
1>1
#816
1C1
1E1
#817
1=1
0C1
0D1
0E1
#818
1;1
0=1
0>1
1D1
#819
0;1
#820
1C1
1E1
#821
0C1
0D1
0E1
#883
1J1
#884
b11 +0
1I1
#885
1>1
0I1
#886
b10 +0
1=1
1D1
0J1
#887
1;1
0=1
0>1
#888
0;1
#889
1C1
1E1
#890
0C1
0D1
0E1
#960
1J1
#961
b11 +0
1I1
#962
1>1
0I1
#963
b10 +0
1=1
1D1
0J1
#964
1;1
0=1
0>1
#965
0;1
#966
1C1
1E1
#967
0C1
0D1
0E1
